{
	"jwtPrivateKey": "",
	"cloudinary_cloud_name": "",
	"cloudinary_api_key": "",
	"cloudinary_api_secret": "",
	"db_password": "",
	"db": "mongodb://127.0.0.1:27017/news",
	"uploads": "/client/public/uploads"
}